8942f4c4af6c717cb7ff495eabf9b1d5  ./Erpressung/cmd_zipfile.txt
16d731809f6bf4f6336c4e3f8068b761  ./Erpressung/cmp_zipfile_usb.txt
84798843db83a5c898c2a0ef09d26df5  ./Erpressung/diff_microscope_jpegs.txt
4db32968b696e7b7dca8e3860e52b6c3  ./Erpressung/Dokumente/Immortality/Thumbs.db
b526e6c7a244d62e7120f3f804d76d8d  ./Erpressung/Dokumente/Immortality/us005026637-001.tif
4fa239c22e5fb7b934a1bf68e4e0e2e7  ./Erpressung/Dokumente/01.zip
44dc1a86d3d6f149e155fcc8cf1c76b1  ./Erpressung/hashes_dokumente.txt
c412dfcd8bca1333d9356d710dd7a01a  ./Erpressung/Dokumente/Immortality/us006982168-001.tif
5da43a6528272dc3056ae52747ee1121  ./Kittenporn/47C815E0d01.txt
de9d94e7a90940f969516c344fa26dee  ./Kittenporn/47C815E0d01.jpg
90d76bc7d8893fe9167054c1b4c62877  ./Kittenporn/E7A5F3EFd01.jpg
eb9b2c11e0b8570b09190272f2628612  ./Kittenporn/E7A5F3EFd01.txt
689a8ffcdb92dc0dcc68078e42c094da  ./Erpressung/Dokumente/microscope.jpg
4be2c4abb48c4389ca798e6c21736ea1  ./Erpressung/Dokumente/microscope1.jpg
43d84752062d50dd6cfa2020b9277666  ./Mailverkehr/Harddisk/01_charlie_and_the_big_money.txt
9b8a6cb11a9f079b1eaa1fcc85ba48cb  ./Mailverkehr/Harddisk/01_charlie_and_the_big_money_header.txt
af0de7c94022e24934082ec09aaa537c  ./Mailverkehr/Harddisk/01_charlie_and_the_big_money_index.html
4c1d86d967d574fc10f42243b9483678  ./Mailverkehr/Harddisk/01_charlie_and_the_big_money_menu.html
d29fedb7d3997d053115e96ce2c8fcdf  ./Mailverkehr/Harddisk/02_charlie_new_car_1.txt
8987876990f4402fd9e09ac3a76ac441  ./Mailverkehr/Harddisk/02_charlie_new_car_1_header.txt
93ce592f0b5d9264a2990c0767cdfd17  ./Mailverkehr/Harddisk/02_charlie_new_car_1_index.html
8743bc22a19b75a2829eef8b4ea0eb35  ./Mailverkehr/Harddisk/02_charlie_new_car_1_menu.html
d3f5e4473235d77fda7301f7c64eaf59  ./Mailverkehr/Harddisk/03_charlie_new_car_2.txt
2c47b8551b2b1f1e8ba078d911789f5e  ./Mailverkehr/Harddisk/03_charlie_new_car_2_header.txt
e212e91af5f510e196bb65004c1e3a0f  ./Mailverkehr/Harddisk/03_charlie_new_car_2_index.html
14a27ff1e60e0e720b416169f2a056ab  ./Mailverkehr/Harddisk/03_charlie_new_car_2_menu.html
11b79f0820845c889240d50308ae5a99  ./Mailverkehr/Harddisk/04_charlie_offers_jamie.txt
2f405aa7d3774abf38e1c7a537a41484  ./Mailverkehr/Harddisk/04_charlie_offers_jamie_header.txt
543e3b2e3870a12d4948cb6057aaa77e  ./Mailverkehr/Harddisk/04_charlie_offers_jamie_index.html
9f9cf109f6292cb84f2787b242d8e146  ./Mailverkehr/Harddisk/04_charlie_offers_jamie_menu.html
9ee7e13dec3402c2a88cf49286109747  ./Mailverkehr/Harddisk/05_charlie_sends_jamie_the_file.txt
5f7332f5ea86dd88378efc557673cc68  ./Mailverkehr/Harddisk/05_charlie_sends_jamie_the_file_header.txt
e8a478d10c491cd3fd85c51e906bf915  ./Mailverkehr/Harddisk/05_charlie_sends_jamie_the_file_index.html
e6ed5785ab6fd81a601bf005c27ffdcb  ./Mailverkehr/Harddisk/05_charlie_sends_jamie_the_file_menu.html
7eea1bd8df5a57133ae027e10bdabc34  ./Mailverkehr/Harddisk/06_charlie_blackmails_andy.txt
701ef5e1d07b697f031514118712ba70  ./Mailverkehr/Harddisk/06_charlie_blackmails_andy_header.txt
a5d648d9eb3dec2e3639243f4161452c  ./Mailverkehr/Harddisk/06_charlie_blackmails_andy_index.html
9da658e088356e07d2772e89da9efc56  ./Mailverkehr/Harddisk/06_charlie_blackmails_andy_menu.html
c982e47fe2cd65cccf5c900fa624bc87  ./Mailverkehr/Harddisk/07_charlie_sends_jamie_the_password.txt
36e5d141a7ad3acad3a63961500665d3  ./Mailverkehr/Harddisk/07_charlie_sends_jamie_the_password_header.txt
d17bb1ea7f04006b32d56232cf06a525  ./Mailverkehr/Harddisk/07_charlie_sends_jamie_the_password_index.html
4aff465b8286ffd158a69c931eea95a0  ./Mailverkehr/Harddisk/07_charlie_sends_jamie_the_password_menu.html
83d0a11d06d8adcb5377a99ecb8ec0b6  ./Mailverkehr/Harddisk/08_charlie_sends_andy_the_picture_with_the_password.txt
b5224171d5bec46432c2b3de3b4f71cc  ./Mailverkehr/Harddisk/08_charlie_sends_andy_the_picture_with_the_password_header.txt
8db0bd5fa5925d4d601f04355d3e720a  ./Mailverkehr/Harddisk/08_charlie_sends_andy_the_picture_with_the_password_index.html
2a16d4d39037d3025cc8dd93d3015333  ./Mailverkehr/Harddisk/08_charlie_sends_andy_the_picture_with_the_password_menu.html
8856682f03892a223737e87a33632709  ./Mailverkehr/Usb/Charlie_2009-12-01_1302_Sent.txt
870eb60d6efc9a2951dfbef0a52752fd  ./Mailverkehr/Usb/Charlie_2009-12-01_1343_Received.txt
7577a4b53858c23f68ef5281a63d41ca  ./Mailverkehr/Usb/Charlie_2009-12-02_1304_Sent.txt
0c2e809af37f598c96ad4799a6f439f6  ./Mailverkehr/Usb/Charlie_2009-12-02_1325_Sent.txt
6dd436ca94f8eb6eb8ee7caf499fdfef  ./Mailverkehr/Usb/Charlie_2009-12-03_0951_Received.txt
f752677303729e24692bbe8c4a3747c5  ./Mailverkehr/Usb/Charlie_2009-12-03_1216_Sent.txt
58936eeb680b72c0570cb5035ed88cf8  ./Mailverkehr/Usb/Charlie_2009-12-04_0941_Sent.txt
24d77a52e89b224219fd9386de23be43  ./Mailverkehr/Usb/Charlie_2009-12-04_1306_Sent.txt
bdf1cd8348e5fef99a533e6d2339960f  ./Mailverkehr/Usb/Charlie_2009-12-07_1144_Sent.txt
65c735c551b179199a7b189734bde984  ./Mailverkehr/Usb/Charlie_2009-12-08_1418_Sent.txt
45500703f7a12784cc1d7a12552a151a  ./Mailverkehr/Usb/Charlie_2009-12-10_1418_Sent.txt
4fa239c22e5fb7b934a1bf68e4e0e2e7  ./Mailverkehr/Usb/Charlie_2009-12-04_0941_Sent_01.zip
c19a7fc874a19af562d774b4b26b81b1  ./Verkauf/cmp_stegtool.txt
4be2c4abb48c4389ca798e6c21736ea1  ./Mailverkehr/Usb/Charlie_2009-12-07_1144_Sent_microscope1.jpg
56fd56fc40b7c6d7b7572711f863bc8d  ./Verkauf/Dokumente/Nitroba work.odt
cf0c95118d181403bd9ecba44164b59d  ./Verkauf/hashes_astronaut1.txt
293ad72623f1ea9b73e187901e21a682  ./Verkauf/hashes_dokumente.txt
45eade24b3a89b21fed303310ccbdc54  ./Mailverkehr/Usb/Charlie_2009-12-03_1216_Sent_astronaut1.jpg
40b386b30ed026c60ec1ac72e87360a3  ./Verkauf/Dokumente/astronaut.jpg
45eade24b3a89b21fed303310ccbdc54  ./Verkauf/Dokumente/astronaut1.jpg
83150daa46ccfe62a4aeb6c4898905a8  ./Verkauf/Dokumente/invsecr2.exe