X-Mozilla-Status: 0001

X-Mozilla-Status2: 00800000

X-Mozilla-Keys:                                                                                 

Message-ID: <4B1D5B12.6060506@m57.biz>

Date: Mon, 07 Dec 2009 11:44:18 -0800

From: Charlie <charlie@m57.biz>

User-Agent: Thunderbird 2.0.0.23 (Windows/20090812)

MIME-Version: 1.0

To: andy@swexpert.com

Subject: Picture

Content-Type: multipart/mixed;

 boundary="------------000700080600090503060906"

