Delivered-To: t93940@gmail.com

Received: by 10.140.128.7 with SMTP id a7cs61962rvd;

        Tue, 24 Nov 2009 13:27:16 -0800 (PST)

Received: by 10.115.98.29 with SMTP id a29mr7460663wam.142.1259098030513;

        Tue, 24 Nov 2009 13:27:10 -0800 (PST)

Return-Path: <bounce-t93940=gmail.com@craigslist.org>

Received: from mxo1p.craigslist.org (mxo1p.craigslist.org [208.82.236.166])

        by mx.google.com with ESMTP id 32si11354963pzk.110.2009.11.24.13.27.10;

        Tue, 24 Nov 2009 13:27:10 -0800 (PST)

Received-SPF: pass (google.com: domain of bounce-t93940=gmail.com@craigslist.org designates 208.82.236.166 as permitted sender) client-ip=208.82.236.166;

Authentication-Results: mx.google.com; spf=pass (google.com: domain of bounce-t93940=gmail.com@craigslist.org designates 208.82.236.166 as permitted sender) smtp.mail=bounce-t93940=gmail.com@craigslist.org

Content-Transfer-Encoding: binary

Content-Type: multipart/alternative; boundary="_----------=_12590980291212622"

MIME-Version: 1.0

X-Mailer: MIME::Lite 3.01 (F2.74; A1.74; B3.07; Q3.07)

From: craigslist.org <noreply@craigslist.org>

To: t93940@gmail.com

Subject: Your craigslist posting 'Dell Computer For Sale'

Date: Tue, 24 Nov 2009 13:27:09 -0800 (PST)

Message-Id: <20091124212709.E9D1B9E3F7@web36p.int.craigslist.org>

