X-Account-Key: account2

X-UIDL: UID41-1258400844

X-Mozilla-Status: 0013

X-Mozilla-Status2: 00000000

X-Mozilla-Keys:                                                                                 

Return-Path: <alix.pery@yahoo.com>

X-Original-To: charlie@m57.biz

Delivered-To: x10025127@homiemail-mx11.g.dreamhost.com

Received: from n9b.bullet.mail.mud.yahoo.com (n9b.bullet.mail.mud.yahoo.com [209.191.87.109])

	by homiemail-mx11.g.dreamhost.com (Postfix) with SMTP id 864585980E8

	for <charlie@m57.biz>; Tue,  1 Dec 2009 13:43:36 -0800 (PST)

Received: from [209.191.108.96] by n9.bullet.mail.mud.yahoo.com with NNFMP; 01 Dec 2009 21:43:36 -0000

Received: from [67.195.9.81] by t3.bullet.mud.yahoo.com with NNFMP; 01 Dec 2009 21:43:36 -0000

Received: from [67.195.9.99] by t1.bullet.mail.gq1.yahoo.com with NNFMP; 01 Dec 2009 21:43:35 -0000

Received: from [127.0.0.1] by omp103.mail.gq1.yahoo.com with NNFMP; 01 Dec 2009 21:43:35 -0000

X-Yahoo-Newman-Property: ymail-5

X-Yahoo-Newman-Id: 986588.31085.bm@omp103.mail.gq1.yahoo.com

Received: (qmail 58091 invoked by uid 60001); 1 Dec 2009 21:43:35 -0000

DKIM-Signature: v=1; a=rsa-sha256; c=relaxed/relaxed; d=yahoo.com; s=s1024; t=1259703815; bh=dVSXcSaq4INFGiBnEVSSwcL7cFpFKPYmFEMwqBzjoUY=; h=Message-ID:X-YMail-OSG:Received:X-Mailer:References:Date:From:Subject:To:In-Reply-To:MIME-Version:Content-Type; b=t/pvw/ctD2Toj3f/G/OoxqBLd6hum7i3X7tFf8bxIPTHu0nSLLoEz6pA0+mT2UlZT8E59eT2bjk/CFU6nkG5TkV9kM/JSrybnAHtVgSFUVm2Bz1p6yaNFXLH2CYia6LoW86EBO8lH5kbNtnGy7y7dzUcOrrFqw7RJK3GuRtO1EM=

DomainKey-Signature:a=rsa-sha1; q=dns; c=nofws;

  s=s1024; d=yahoo.com;

  h=Message-ID:X-YMail-OSG:Received:X-Mailer:References:Date:From:Subject:To:In-Reply-To:MIME-Version:Content-Type;

  b=OeGZO99Y7291QiRPgkmZYvuo4ak9RFm2x/m70gvLhDRjmTRtSAX8MNv4vIshdmMxYe+eEyTZGvl0yJIOfbv6KeUC/Wo/kHUHSExnHcrt30iDoBSEodn4P642kJOasDV5YMrXB4DvJw/aay0tySXhc3NGcmJHDPjyB87b/fW/ahQ=;

Message-ID: <906709.57460.qm@web113905.mail.gq1.yahoo.com>

X-YMail-OSG: 4bNpYfUVM1k_cZ0suCD_v455hNT.jTkQGwwx0sj0rexrwlNCPZs6Q3fMYZsBoNHyFuonqGirttuI5QQxg_ppAiyZvfv8lI1RtlW6JY8kyX3TPqX6ncvtcYwvbM0aCNu2wgUHUnLyA7QBVrDZSIBa4oFjPp9uQl68pN7QcCbjpt2k6.CebxGqx.SpXskb3yq9EkmcebmJsYa2oaWyudsJgGN12QL7MfuwL6Lj1jb3gSsNwhO1v63iFQNKYl6ECowxQRsEuagB0m5t39.7sMWo9LaVRdFw0_h4uQ7.7LoAcwPblSOFM8T2Wdqh5JBNNvc-

Received: from [205.155.65.233] by web113905.mail.gq1.yahoo.com via HTTP; Tue, 01 Dec 2009 13:43:35 PST

X-Mailer: YahooMailRC/211.6 YahooMailWebService/0.8.100.260964

References: <4B15846A.3060008@m57.biz>

Date: Tue, 1 Dec 2009 13:43:35 -0800 (PST)

From: Alix Pery <alix.pery@yahoo.com>

Subject: Re: Pack your bags

To: Charlie <charlie@m57.biz>

In-Reply-To: <4B15846A.3060008@m57.biz>

MIME-Version: 1.0

Content-Type: multipart/alternative; boundary="0-904586192-1259703815=:57460"

