   Visuel HexDiff v 0.0.53 by tTh 2007                             dec   7bits
       0   ff d8 ff e0 00 10 4a 46 49 46 00 01 01 01 00 90          JFIF
      16   00 90 00 00 ff db 00 43 00 01 01 01 01 01 01 01           C
      32   01 01 01 01 01 01 01 01 01 01 01 01 01 01 01 01
      48   01 01 01 01 01 01 01 01 01 01 01 01 01 01 01 01
      64   01 01 01 01 01 01 01 01 01 01 01 01 01 01 01 01
      80   01 01 01 01 01 01 01 01 01 ff db 00 43 01 01 01                C
      96   01 01 01 01 01 01 01 01 01 01 01 01 01 01 01 01
     112   01 01 01 01 01 01 01 01 01 01 01 01 01 01 01 01
     128   01 01 01 01 01 01 01 01 01 01 01 01 01 01 01 01
     144   01 01 01 01 01 01 01 01 01 01 01 01 01 01 ff c0
** microscope.jpg                                     136274        0   0%
       0   ff d8 ff e0 00 10 4a 46 49 46 00 01 01 01 00 90          JFIF
      16   00 90 00 00 ff db 00 43 00 01 01 01 01 01 01 01           C
      32   01 01 01 01 01 01 01 01 01 01 01 01 01 01 01 01
      48   01 01 01 01 01 01 01 01 01 01 01 01 01 01 01 01
      64   01 01 01 01 01 01 01 01 01 01 01 01 01 01 01 01
      80   01 01 01 01 01 01 01 01 01 ff db 00 43 01 01 01                C
      96   01 01 01 01 01 01 01 01 01 01 01 01 01 01 01 01
     112   01 01 01 01 01 01 01 01 01 01 01 01 01 01 01 01
     128   70 61 73 73 77 6f 72 64 3d 69 6d 6d 6f 72 74 61    password=immorta
     144   6c 01 01 01 01 01 01 01 01 01 01 01 01 01 ff c0    l
   microscope1.jpg                                    136274        0   0%