root@srv-01-va1416:/srv2/itf/m57biz-ITF-Praktikum/charlie/mnt_usbdrive# md5sum astron* Nitroba\ work.odt invsecr2.exe
45eade24b3a89b21fed303310ccbdc54  astronaut1.jpg
40b386b30ed026c60ec1ac72e87360a3  astronaut.jpg
56fd56fc40b7c6d7b7572711f863bc8d  Nitroba work.odt
83150daa46ccfe62a4aeb6c4898905a8  invsecr2.exe

root@srv-01-va1416:/srv2/itf/m57biz-ITF-Praktikum/charlie/mnt_usbdrive# sha1sum astron* Nitroba\ work.odt invsecr2.exe
a8c5a82e0c00a29b7a670436ed46f4b4fd380082  astronaut1.jpg
8cb8bd913bbfe8d4d0830eabc9abe909aae2aa2f  astronaut.jpg
1837fd381a6a5d462ccf3e381761834f3e389b28  Nitroba work.odt
9b5d8f615bd98d9d957dd386e7a7f0a5ed1e0798  invsecr2.exe